<svg width="3" height="6" viewBox="0 0 3 6" fill="none" xmlns="http://www.w3.org/2000/svg">
<path d="M1.64611 0.172119C1.21531 0.172119 0.866211 0.521239 0.866211 0.952089V4.54208C0.866211 4.97273 1.21531 5.32202 1.64611 5.32202C2.07681 5.32202 2.42611 4.97273 2.42611 4.54208V0.952089C2.42611 0.521239 2.07701 0.172119 1.64611 0.172119Z" fill="#005640"/>
</svg>
